[gd_scene load_steps=3 format=3 uid="uid://qh3j3kumljfh"]

[ext_resource type="Script" path="res://weapons/effects/explosion.gd" id="1_js3on"]

[sub_resource type="CircleShape2D" id="CircleShape2D_lhfsm"]
radius = 150.003

[node name="Explosion" type="Area2D"]
script = ExtResource("1_js3on")

[node name="Polygon2D" type="Polygon2D" parent="."]
position = Vector2(9, -1)
color = Color(1, 0.827451, 0.564706, 1)
polygon = PackedVector2Array(-9, -148, -85, -126, -142, -67, -161, -1, -135, 80, -82, 131, -10, 149, 78, 123, 118, 75, 141, 1, 122, -73, 71, -125)

[node name="CollisionShape2D" type="CollisionShape2D" parent="."]
shape = SubResource("CircleShape2D_lhfsm")

[node name="TickTimer" type="Timer" parent="."]
wait_time = 0.1
autostart = true

[connection signal="timeout" from="TickTimer" to="." method="_on_tick_timer_timeout"]
